<?xml version="1.0" encoding="utf-8"?>
<!-- Generator: Adobe Illustrator 21.0.2, SVG Export Plug-In . SVG Version: 6.00 Build 0)  -->
<svg version="1.1" id="Layer_1" xmlns="http://www.w3.org/2000/svg" xmlns:xlink="http://www.w3.org/1999/xlink" x="0px" y="0px"
	 width="273px" height="512px" viewBox="0 0 273 512" style="enable-background:new 0 0 273 512;" xml:space="preserve">
<path class="st0" d="M10,256L266,0L138,256l128,256L10,256z"/>
</svg>
