<?xml version="1.0" encoding="utf-8"?>
<!-- Generator: Adobe Illustrator 23.0.1, SVG Export Plug-In . SVG Version: 6.00 Build 0)  -->
<svg version="1.1" id="Слой_1" xmlns="http://www.w3.org/2000/svg" xmlns:xlink="http://www.w3.org/1999/xlink" x="0px" y="0px"
	 viewBox="0 0 113 100" style="enable-background:new 0 0 113 100;" xml:space="preserve">
<style type="text/css">
	.st0{fill:#FFCF00;}
	.st1{fill:#00B000;}
</style>
<path class="st0" d="M104.7,22.4C89.4-0.6,58.4-6.9,35.4,8.3L63,50L21.3,77.6c15.3,23,46.3,29.3,69.3,14.1
	C113.6,76.4,119.9,45.4,104.7,22.4z"/>
<path class="st1" d="M22.4,6.3C-0.6,21.6-6.9,52.6,8.3,75.6L50,48L22.4,6.3z"/>
</svg>
